{
  "name": "m21-cerutti.ClapClapEvent",
  "rootNamespace": "",
  "references": [
    "Unity.InputSystem",
    "m21-cerutti.BaseUtilityScripting"
  ],
  "includePlatforms": [],
  "excludePlatforms": [],
  "allowUnsafeCode": false,
  "overrideReferences": false,
  "precompiledReferences": [],
  "autoReferenced": true,
  "defineConstraints": [],
  "versionDefines": [
    {
      "name": "com.unity.inputsystem",
      "expression": "0",
      "define": "USE_NEWINPUT"
    }
  ],
  "noEngineReferences": false
}