{
  "name": "m21-cerutti.ClapClapEvent.Samples.Editor",
  "rootNamespace": "",
  "references": [
    "m21-cerutti.ClapClapEvent",
    "m21-cerutti.BaseUtilityScripting.Editor",
    "m21-cerutti.BaseUtilityScripting",
    "m21-cerutti.ClapClapEvent.Editor"
  ],
  "includePlatforms": [
    "Editor"
  ],
  "excludePlatforms": [],
  "allowUnsafeCode": false,
  "overrideReferences": false,
  "precompiledReferences": [],
  "autoReferenced": true,
  "defineConstraints": [],
  "versionDefines": [],
  "noEngineReferences": false
}